[
  {
    "nombre": "webclimi",
    "descripcion": "Back MAC Internacional",
    "url": "https://svn1prod.iberdrola.es:7777/svn/webclimi/"
  },
  {
    "nombre": "wclifrmi",
    "descripcion": "Front MAC Internacional",
    "url": "https://svn1prod.iberdrola.es:7777/svn/wclifrmi/"
  }
]
